^C:\USERS\2HIZZO\DROPBOX\TECHNIKUM_WIEN\SEMESTER_1\EFP\EFP_PROJ_2\EFP_PROJ_2\TIMER.CPP
/c /Zi /nologo /W3 /WX- /O2 /Oi /Oy- /GL /D _MBCS /Gm- /EHsc /MD /GS /Gy /fp:precise /Zc:wchar_t /Zc:forScope /openmp /Fo"RELEASE\\" /Fd"RELEASE\VC110.PDB" /Gd /TP /analyze- C:\USERS\2HIZZO\DROPBOX\TECHNIKUM_WIEN\SEMESTER_1\EFP\EFP_PROJ_2\EFP_PROJ_2\TIMER.CPP
^C:\USERS\2HIZZO\DROPBOX\TECHNIKUM_WIEN\SEMESTER_1\EFP\EFP_PROJ_2\EFP_PROJ_2\GRIDMP.CPP
/c /Zi /nologo /W3 /WX- /O2 /Oi /Oy- /GL /D _MBCS /Gm- /EHsc /MD /GS /Gy /fp:precise /Zc:wchar_t /Zc:forScope /openmp /Fo"RELEASE\\" /Fd"RELEASE\VC110.PDB" /Gd /TP /analyze- C:\USERS\2HIZZO\DROPBOX\TECHNIKUM_WIEN\SEMESTER_1\EFP\EFP_PROJ_2\EFP_PROJ_2\GRIDMP.CPP
^C:\USERS\2HIZZO\DROPBOX\TECHNIKUM_WIEN\SEMESTER_1\EFP\EFP_PROJ_2\EFP_PROJ_2\GRID.CPP
/c /Zi /nologo /W3 /WX- /O2 /Oi /Oy- /GL /D _MBCS /Gm- /EHsc /MD /GS /Gy /fp:precise /Zc:wchar_t /Zc:forScope /openmp /Fo"RELEASE\\" /Fd"RELEASE\VC110.PDB" /Gd /TP /analyze- C:\USERS\2HIZZO\DROPBOX\TECHNIKUM_WIEN\SEMESTER_1\EFP\EFP_PROJ_2\EFP_PROJ_2\GRID.CPP
^C:\USERS\2HIZZO\DROPBOX\TECHNIKUM_WIEN\SEMESTER_1\EFP\EFP_PROJ_2\EFP_PROJ_2\GOL.CPP
/c /Zi /nologo /W3 /WX- /O2 /Oi /Oy- /GL /D _MBCS /Gm- /EHsc /MD /GS /Gy /fp:precise /Zc:wchar_t /Zc:forScope /openmp /Fo"RELEASE\\" /Fd"RELEASE\VC110.PDB" /Gd /TP /analyze- C:\USERS\2HIZZO\DROPBOX\TECHNIKUM_WIEN\SEMESTER_1\EFP\EFP_PROJ_2\EFP_PROJ_2\GOL.CPP
^C:\USERS\2HIZZO\DROPBOX\TECHNIKUM_WIEN\SEMESTER_1\EFP\EFP_PROJ_2\EFP_PROJ_2\GRIDCL.CPP
/c /Zi /nologo /W3 /WX- /O2 /Oi /Oy- /GL /D _MBCS /Gm- /EHsc /MD /GS /Gy /fp:precise /Zc:wchar_t /Zc:forScope /openmp /Fo"RELEASE\\" /Fd"RELEASE\VC110.PDB" /Gd /TP /analyze- C:\USERS\2HIZZO\DROPBOX\TECHNIKUM_WIEN\SEMESTER_1\EFP\EFP_PROJ_2\EFP_PROJ_2\GRIDCL.CPP
^C:\USERS\2HIZZO\DROPBOX\TECHNIKUM_WIEN\SEMESTER_1\EFP\EFP_PROJ_2\EFP_PROJ_2\MAIN.CPP
/c /Zi /nologo /W3 /WX- /O2 /Oi /Oy- /GL /D _MBCS /Gm- /EHsc /MD /GS /Gy /fp:precise /Zc:wchar_t /Zc:forScope /openmp /Fo"RELEASE\\" /Fd"RELEASE\VC110.PDB" /Gd /TP /analyze- C:\USERS\2HIZZO\DROPBOX\TECHNIKUM_WIEN\SEMESTER_1\EFP\EFP_PROJ_2\EFP_PROJ_2\MAIN.CPP
