^C:\USERS\2HIZZO\DROPBOX\TECHNIKUM_WIEN\SEMESTER_1\EFP\EFP_PROJ_2\EFP_PROJ_2\GOL.CPP|C:\USERS\2HIZZO\DROPBOX\TECHNIKUM_WIEN\SEMESTER_1\EFP\EFP_PROJ_2\EFP_PROJ_2\GRIDMP.CPP
C:\USERS\2HIZZO\DROPBOX\TECHNIKUM_WIEN\SEMESTER_1\EFP\EFP_PROJ_2\EFP_PROJ_2\RELEASE\GRIDMP.OBJ
C:\USERS\2HIZZO\DROPBOX\TECHNIKUM_WIEN\SEMESTER_1\EFP\EFP_PROJ_2\EFP_PROJ_2\RELEASE\GOL.OBJ
^C:\USERS\2HIZZO\DROPBOX\TECHNIKUM_WIEN\SEMESTER_1\EFP\EFP_PROJ_2\EFP_PROJ_2\GOL.CPP|C:\USERS\2HIZZO\DROPBOX\TECHNIKUM_WIEN\SEMESTER_1\EFP\EFP_PROJ_2\EFP_PROJ_2\GRID.CPP|C:\USERS\2HIZZO\DROPBOX\TECHNIKUM_WIEN\SEMESTER_1\EFP\EFP_PROJ_2\EFP_PROJ_2\GRIDCL.CPP|C:\USERS\2HIZZO\DROPBOX\TECHNIKUM_WIEN\SEMESTER_1\EFP\EFP_PROJ_2\EFP_PROJ_2\GRIDMP.CPP|C:\USERS\2HIZZO\DROPBOX\TECHNIKUM_WIEN\SEMESTER_1\EFP\EFP_PROJ_2\EFP_PROJ_2\MAIN.CPP|C:\USERS\2HIZZO\DROPBOX\TECHNIKUM_WIEN\SEMESTER_1\EFP\EFP_PROJ_2\EFP_PROJ_2\TIMER.CPP
C:\USERS\2HIZZO\DROPBOX\TECHNIKUM_WIEN\SEMESTER_1\EFP\EFP_PROJ_2\EFP_PROJ_2\RELEASE\TIMER.OBJ
C:\USERS\2HIZZO\DROPBOX\TECHNIKUM_WIEN\SEMESTER_1\EFP\EFP_PROJ_2\EFP_PROJ_2\RELEASE\MAIN.OBJ
C:\USERS\2HIZZO\DROPBOX\TECHNIKUM_WIEN\SEMESTER_1\EFP\EFP_PROJ_2\EFP_PROJ_2\RELEASE\GRIDCL.OBJ
C:\USERS\2HIZZO\DROPBOX\TECHNIKUM_WIEN\SEMESTER_1\EFP\EFP_PROJ_2\EFP_PROJ_2\RELEASE\GRID.OBJ
C:\USERS\2HIZZO\DROPBOX\TECHNIKUM_WIEN\SEMESTER_1\EFP\EFP_PROJ_2\EFP_PROJ_2\RELEASE\GOL.OBJ
^C:\USERS\2HIZZO\DROPBOX\TECHNIKUM_WIEN\SEMESTER_1\EFP\EFP_PROJ_2\EFP_PROJ_2\TIMER.CPP
C:\USERS\2HIZZO\DROPBOX\TECHNIKUM_WIEN\SEMESTER_1\EFP\EFP_PROJ_2\EFP_PROJ_2\RELEASE\TIMER.OBJ
^C:\USERS\2HIZZO\DROPBOX\TECHNIKUM_WIEN\SEMESTER_1\EFP\EFP_PROJ_2\EFP_PROJ_2\GRID.CPP|C:\USERS\2HIZZO\DROPBOX\TECHNIKUM_WIEN\SEMESTER_1\EFP\EFP_PROJ_2\EFP_PROJ_2\GRIDCL.CPP|C:\USERS\2HIZZO\DROPBOX\TECHNIKUM_WIEN\SEMESTER_1\EFP\EFP_PROJ_2\EFP_PROJ_2\GRIDMP.CPP
C:\USERS\2HIZZO\DROPBOX\TECHNIKUM_WIEN\SEMESTER_1\EFP\EFP_PROJ_2\EFP_PROJ_2\RELEASE\GRIDMP.OBJ
C:\USERS\2HIZZO\DROPBOX\TECHNIKUM_WIEN\SEMESTER_1\EFP\EFP_PROJ_2\EFP_PROJ_2\RELEASE\GRIDCL.OBJ
C:\USERS\2HIZZO\DROPBOX\TECHNIKUM_WIEN\SEMESTER_1\EFP\EFP_PROJ_2\EFP_PROJ_2\RELEASE\GRID.OBJ
^C:\USERS\2HIZZO\DROPBOX\TECHNIKUM_WIEN\SEMESTER_1\EFP\EFP_PROJ_2\EFP_PROJ_2\GOL.CPP|C:\USERS\2HIZZO\DROPBOX\TECHNIKUM_WIEN\SEMESTER_1\EFP\EFP_PROJ_2\EFP_PROJ_2\GRID.CPP|C:\USERS\2HIZZO\DROPBOX\TECHNIKUM_WIEN\SEMESTER_1\EFP\EFP_PROJ_2\EFP_PROJ_2\GRIDCL.CPP|C:\USERS\2HIZZO\DROPBOX\TECHNIKUM_WIEN\SEMESTER_1\EFP\EFP_PROJ_2\EFP_PROJ_2\GRIDMP.CPP|C:\USERS\2HIZZO\DROPBOX\TECHNIKUM_WIEN\SEMESTER_1\EFP\EFP_PROJ_2\EFP_PROJ_2\MAIN.CPP
C:\USERS\2HIZZO\DROPBOX\TECHNIKUM_WIEN\SEMESTER_1\EFP\EFP_PROJ_2\EFP_PROJ_2\RELEASE\MAIN.OBJ
C:\USERS\2HIZZO\DROPBOX\TECHNIKUM_WIEN\SEMESTER_1\EFP\EFP_PROJ_2\EFP_PROJ_2\RELEASE\GRIDMP.OBJ
C:\USERS\2HIZZO\DROPBOX\TECHNIKUM_WIEN\SEMESTER_1\EFP\EFP_PROJ_2\EFP_PROJ_2\RELEASE\GRIDCL.OBJ
C:\USERS\2HIZZO\DROPBOX\TECHNIKUM_WIEN\SEMESTER_1\EFP\EFP_PROJ_2\EFP_PROJ_2\RELEASE\GRID.OBJ
C:\USERS\2HIZZO\DROPBOX\TECHNIKUM_WIEN\SEMESTER_1\EFP\EFP_PROJ_2\EFP_PROJ_2\RELEASE\GOL.OBJ
^C:\USERS\2HIZZO\DROPBOX\TECHNIKUM_WIEN\SEMESTER_1\EFP\EFP_PROJ_2\EFP_PROJ_2\GRIDMP.CPP
C:\USERS\2HIZZO\DROPBOX\TECHNIKUM_WIEN\SEMESTER_1\EFP\EFP_PROJ_2\EFP_PROJ_2\RELEASE\VC110.PDB
^C:\USERS\2HIZZO\DROPBOX\TECHNIKUM_WIEN\SEMESTER_1\EFP\EFP_PROJ_2\EFP_PROJ_2\GOL.CPP|C:\USERS\2HIZZO\DROPBOX\TECHNIKUM_WIEN\SEMESTER_1\EFP\EFP_PROJ_2\EFP_PROJ_2\GRID.CPP|C:\USERS\2HIZZO\DROPBOX\TECHNIKUM_WIEN\SEMESTER_1\EFP\EFP_PROJ_2\EFP_PROJ_2\GRIDCL.CPP
C:\USERS\2HIZZO\DROPBOX\TECHNIKUM_WIEN\SEMESTER_1\EFP\EFP_PROJ_2\EFP_PROJ_2\RELEASE\GRIDCL.OBJ
C:\USERS\2HIZZO\DROPBOX\TECHNIKUM_WIEN\SEMESTER_1\EFP\EFP_PROJ_2\EFP_PROJ_2\RELEASE\GRID.OBJ
C:\USERS\2HIZZO\DROPBOX\TECHNIKUM_WIEN\SEMESTER_1\EFP\EFP_PROJ_2\EFP_PROJ_2\RELEASE\GOL.OBJ
^C:\USERS\2HIZZO\DROPBOX\TECHNIKUM_WIEN\SEMESTER_1\EFP\EFP_PROJ_2\EFP_PROJ_2\GRID.CPP
C:\USERS\2HIZZO\DROPBOX\TECHNIKUM_WIEN\SEMESTER_1\EFP\EFP_PROJ_2\EFP_PROJ_2\RELEASE\VC110.PDB
^C:\USERS\2HIZZO\DROPBOX\TECHNIKUM_WIEN\SEMESTER_1\EFP\EFP_PROJ_2\EFP_PROJ_2\GOL.CPP|C:\USERS\2HIZZO\DROPBOX\TECHNIKUM_WIEN\SEMESTER_1\EFP\EFP_PROJ_2\EFP_PROJ_2\GRIDCL.CPP
C:\USERS\2HIZZO\DROPBOX\TECHNIKUM_WIEN\SEMESTER_1\EFP\EFP_PROJ_2\EFP_PROJ_2\RELEASE\GRIDCL.OBJ
C:\USERS\2HIZZO\DROPBOX\TECHNIKUM_WIEN\SEMESTER_1\EFP\EFP_PROJ_2\EFP_PROJ_2\RELEASE\GOL.OBJ
^C:\USERS\2HIZZO\DROPBOX\TECHNIKUM_WIEN\SEMESTER_1\EFP\EFP_PROJ_2\EFP_PROJ_2\GOL.CPP
C:\USERS\2HIZZO\DROPBOX\TECHNIKUM_WIEN\SEMESTER_1\EFP\EFP_PROJ_2\EFP_PROJ_2\RELEASE\GOL.OBJ
C:\USERS\2HIZZO\DROPBOX\TECHNIKUM_WIEN\SEMESTER_1\EFP\EFP_PROJ_2\EFP_PROJ_2\RELEASE\VC110.PDB
^C:\USERS\2HIZZO\DROPBOX\TECHNIKUM_WIEN\SEMESTER_1\EFP\EFP_PROJ_2\EFP_PROJ_2\GRIDCL.CPP|C:\USERS\2HIZZO\DROPBOX\TECHNIKUM_WIEN\SEMESTER_1\EFP\EFP_PROJ_2\EFP_PROJ_2\MAIN.CPP
C:\USERS\2HIZZO\DROPBOX\TECHNIKUM_WIEN\SEMESTER_1\EFP\EFP_PROJ_2\EFP_PROJ_2\RELEASE\MAIN.OBJ
C:\USERS\2HIZZO\DROPBOX\TECHNIKUM_WIEN\SEMESTER_1\EFP\EFP_PROJ_2\EFP_PROJ_2\RELEASE\GRIDCL.OBJ
^C:\USERS\2HIZZO\DROPBOX\TECHNIKUM_WIEN\SEMESTER_1\EFP\EFP_PROJ_2\EFP_PROJ_2\GRIDCL.CPP
C:\USERS\2HIZZO\DROPBOX\TECHNIKUM_WIEN\SEMESTER_1\EFP\EFP_PROJ_2\EFP_PROJ_2\RELEASE\GRIDCL.OBJ
C:\USERS\2HIZZO\DROPBOX\TECHNIKUM_WIEN\SEMESTER_1\EFP\EFP_PROJ_2\EFP_PROJ_2\RELEASE\VC110.PDB
^C:\USERS\2HIZZO\DROPBOX\TECHNIKUM_WIEN\SEMESTER_1\EFP\EFP_PROJ_2\EFP_PROJ_2\MAIN.CPP
C:\USERS\2HIZZO\DROPBOX\TECHNIKUM_WIEN\SEMESTER_1\EFP\EFP_PROJ_2\EFP_PROJ_2\RELEASE\MAIN.OBJ
C:\USERS\2HIZZO\DROPBOX\TECHNIKUM_WIEN\SEMESTER_1\EFP\EFP_PROJ_2\EFP_PROJ_2\RELEASE\VC110.PDB
